{
  "$schema": "https://developer.microsoft.com/json-schemas/spfx-build/package-solution.schema.json",
  "solution": {
    "name": "share-point-order-list-client-side-solution",
    "id": "ef928fb6-5204-4478-b99c-e671dc294acf",
    "version": "1.0.0.1",
    "includeClientSideAssets": true,
    "skipFeatureDeployment": true
  },
  "paths": {
    "zippedPackage": "solution/share-point-order-list.sppkg"
  }
}
